<?xml version="1.0" encoding="UTF-8" standalone="no"?>
<svg
   xmlns:dc="http://purl.org/dc/elements/1.1/"
   xmlns:cc="http://creativecommons.org/ns#"
   xmlns:rdf="http://www.w3.org/1999/02/22-rdf-syntax-ns#"
   xmlns:svg="http://www.w3.org/2000/svg"
   xmlns="http://www.w3.org/2000/svg"
   xmlns:sodipodi="http://sodipodi.sourceforge.net/DTD/sodipodi-0.dtd"
   xmlns:inkscape="http://www.inkscape.org/namespaces/inkscape"
   version="1.1"
   viewBox="0 205 2104.7244 1488.189"
   id="svg2"
   inkscape:version="0.48.3.1 r9886"
   width="100%"
   height="100%"
   sodipodi:docname="logo_icon_mono.pdf"
   style="fill:#cccccc;fill-opacity:1">
  <metadata
     id="metadata460">
    <rdf:RDF>
      <cc:Work
         rdf:about="">
        <dc:format>image/svg+xml</dc:format>
        <dc:type
           rdf:resource="http://purl.org/dc/dcmitype/StillImage" />
        <dc:title></dc:title>
      </cc:Work>
    </rdf:RDF>
  </metadata>
  <sodipodi:namedview
     pagecolor="#ffffff"
     bordercolor="#666666"
     borderopacity="1"
     objecttolerance="10"
     gridtolerance="10"
     guidetolerance="10"
     inkscape:pageopacity="0"
     inkscape:pageshadow="2"
     inkscape:window-width="1280"
     inkscape:window-height="750"
     id="namedview458"
     showgrid="false"
     inkscape:zoom="0.236"
     inkscape:cx="1747.6881"
     inkscape:cy="214.85108"
     inkscape:window-x="0"
     inkscape:window-y="0"
     inkscape:window-maximized="1"
     inkscape:current-layer="svg2" />
  <style
     id="style4">
/*rect { color:#ff0; fill:#ff0; fill-opacity:1; }*/
svg { background-color:#212121; fill:#ccc; fill-opacity:1; }
</style>
  <defs
     id="defs6" />
  <text
     xml:space="preserve"
     style="font-size:330.4708252px;font-style:normal;font-variant:normal;font-weight:normal;font-stretch:condensed;text-align:start;line-height:89.99999762%;letter-spacing:0px;word-spacing:0px;writing-mode:lr-tb;text-anchor:start;fill:#d20000;fill-opacity:1;stroke:none;font-family:Roboto;-inkscape-font-specification:Roboto Condensed"
     x="1097.851"
     y="649.00732"
     id="text3559"
     sodipodi:linespacing="89.999998%"
     transform="scale(0.99405832,1.0059772)"
     inkscape:export-filename="/home/snelting/Desktop/FT_madrid/lgrulogo_small.png"
     inkscape:export-xdpi="6.682785"
     inkscape:export-ydpi="6.682785"><tspan
       sodipodi:role="line"
       id="tspan3561"
       x="1097.851"
       y="649.00732"
       style="font-size:291.96087646px;font-style:normal;font-variant:normal;font-weight:normal;font-stretch:condensed;text-align:start;line-height:89.99999762%;writing-mode:lr-tb;text-anchor:start;fill:#d20000;fill-opacity:1;font-family:Roboto;-inkscape-font-specification:Roboto Condensed">Libre </tspan><tspan
       sodipodi:role="line"
       x="1097.851"
       y="911.77209"
       id="tspan3563"
       style="font-size:291.96087646px;font-style:normal;font-variant:normal;font-weight:normal;font-stretch:condensed;text-align:start;line-height:89.99999762%;writing-mode:lr-tb;text-anchor:start;fill:#d20000;fill-opacity:1;font-family:Roboto;-inkscape-font-specification:Roboto Condensed">Graphics</tspan><tspan
       sodipodi:role="line"
       x="1097.851"
       y="1174.5369"
       id="tspan3565"
       style="font-size:189.65382385px;font-style:normal;font-variant:normal;font-weight:normal;font-stretch:condensed;text-align:start;line-height:89.99999762%;writing-mode:lr-tb;text-anchor:start;fill:#d20000;fill-opacity:1;font-family:Roboto;-inkscape-font-specification:Roboto Condensed" /></text>
  <rect
     width="71.800003"
     height="71.800003"
     y="488.189"
     x="0"
     style="fill:#008342;fill-opacity:1;display:none"
     id="rect8" />
  <rect
     width="71.800003"
     height="71.800003"
     y="488.189"
     x="66.800003"
     style="fill:#008342;fill-opacity:1;display:none"
     id="rect10" />
  <rect
     width="71.800003"
     height="71.800003"
     y="488.189"
     x="133.60001"
     style="fill:#008342;fill-opacity:1;display:none"
     id="rect12" />
  <rect
     width="71.800003"
     height="71.800003"
     y="488.189"
     x="267.20001"
     style="fill:#008342;fill-opacity:1;display:none"
     id="rect16" />
  <rect
     width="71.800003"
     height="71.800003"
     y="488.189"
     x="534.40002"
     style="fill:#008342;fill-opacity:1;display:none"
     id="rect24" />
  <rect
     width="71.800003"
     height="71.800003"
     y="488.189"
     x="601.20001"
     style="fill:#008342;fill-opacity:1;display:none"
     id="rect26" />
  <rect
     width="71.800003"
     height="71.800003"
     y="488.189"
     x="801.59998"
     style="fill:#008342;fill-opacity:1;display:none"
     id="rect32" />
  <rect
     width="71.800003"
     height="71.800003"
     y="554.98901"
     x="0"
     style="fill:#008342;fill-opacity:1;display:none"
     id="rect38" />
  <rect
     width="71.800003"
     height="71.800003"
     y="554.98901"
     x="66.800003"
     style="fill:#008342;fill-opacity:1;display:none"
     id="rect40" />
  <rect
     width="71.800003"
     height="71.800003"
     y="554.98901"
     x="133.60001"
     style="fill:#008342;fill-opacity:1;display:none"
     id="rect42" />
  <rect
     width="71.800003"
     height="71.800003"
     y="554.98901"
     x="868.40002"
     style="fill:#008342;fill-opacity:1;display:none"
     id="rect64" />
  <rect
     width="71.800003"
     height="71.800003"
     y="621.789"
     x="0"
     style="fill:#008342;fill-opacity:1;display:none"
     id="rect68" />
  <rect
     width="71.800003"
     height="71.800003"
     y="621.789"
     x="66.800003"
     style="fill:#008342;fill-opacity:1;display:none"
     id="rect70" />
  <rect
     width="71.800003"
     height="71.800003"
     y="621.789"
     x="133.60001"
     style="fill:#008342;fill-opacity:1;display:none"
     id="rect72" />
  <rect
     width="71.800003"
     height="71.800003"
     y="621.789"
     x="200.39999"
     style="fill:#008342;fill-opacity:1;display:none"
     id="rect74" />
  <rect
     width="71.800003"
     height="71.800003"
     y="621.789"
     x="734.79999"
     style="fill:#008342;fill-opacity:1;display:none"
     id="rect90" />
  <rect
     width="71.800003"
     height="71.800003"
     y="621.789"
     x="801.59998"
     style="fill:#008342;fill-opacity:1;display:none"
     id="rect92" />
  <rect
     width="71.800003"
     height="71.800003"
     y="621.789"
     x="935.20001"
     style="fill:#008342;fill-opacity:1;display:none"
     id="rect96" />
  <rect
     width="71.800003"
     height="71.800003"
     y="688.58899"
     x="0"
     style="fill:#008342;fill-opacity:1;display:none"
     id="rect98" />
  <rect
     width="71.800003"
     height="71.800003"
     y="688.58899"
     x="66.800003"
     style="fill:#008342;fill-opacity:1;display:none"
     id="rect100" />
  <rect
     width="71.800003"
     height="71.800003"
     y="688.58899"
     x="133.60001"
     style="fill:#008342;fill-opacity:1;display:none"
     id="rect102" />
  <rect
     width="71.800003"
     height="71.800003"
     y="688.58899"
     x="200.39999"
     style="fill:#008342;fill-opacity:1;display:none"
     id="rect104" />
  <rect
     width="71.800003"
     height="71.800003"
     y="688.58899"
     x="267.20001"
     style="fill:#008342;fill-opacity:1;display:none"
     id="rect106" />
  <rect
     width="71.800003"
     height="71.800003"
     y="688.58899"
     x="668"
     style="fill:#008342;fill-opacity:1;display:none"
     id="rect118" />
  <rect
     width="71.800003"
     height="71.800003"
     y="755.38904"
     x="0"
     style="fill:#008342;fill-opacity:1;display:none"
     id="rect128" />
  <rect
     width="71.800003"
     height="71.800003"
     y="755.38904"
     x="66.800003"
     style="fill:#008342;fill-opacity:1;display:none"
     id="rect130" />
  <rect
     width="71.800003"
     height="71.800003"
     y="755.38904"
     x="200.39999"
     style="fill:#008342;fill-opacity:1;display:none"
     id="rect134" />
  <rect
     width="71.800003"
     height="71.800003"
     y="755.38904"
     x="467.60001"
     style="fill:#008342;fill-opacity:1;display:none"
     id="rect142" />
  <rect
     width="71.800003"
     height="71.800003"
     y="755.38904"
     x="534.40002"
     style="fill:#008342;fill-opacity:1;display:none"
     id="rect144" />
  <rect
     width="71.800003"
     height="71.800003"
     y="755.38904"
     x="801.59998"
     style="fill:#008342;fill-opacity:1;display:none"
     id="rect152" />
  <rect
     width="71.800003"
     height="71.800003"
     y="822.18903"
     x="0"
     style="fill:#008342;fill-opacity:1;display:none"
     id="rect158" />
  <rect
     width="71.800003"
     height="71.800003"
     y="822.18903"
     x="66.800003"
     style="fill:#008342;fill-opacity:1;display:none"
     id="rect160" />
  <rect
     width="71.800003"
     height="71.800003"
     y="822.18903"
     x="133.60001"
     style="fill:#008342;fill-opacity:1;display:none"
     id="rect162" />
  <rect
     width="71.800003"
     height="71.800003"
     y="822.18903"
     x="200.39999"
     style="fill:#008342;fill-opacity:1;display:none"
     id="rect164" />
  <rect
     width="71.800003"
     height="71.800003"
     y="822.18903"
     x="467.60001"
     style="fill:#008342;fill-opacity:1;display:none"
     id="rect172" />
  <rect
     width="71.800003"
     height="71.800003"
     y="822.18903"
     x="734.79999"
     style="fill:#008342;fill-opacity:1;display:none"
     id="rect180" />
  <rect
     width="71.800003"
     height="71.800003"
     y="822.18903"
     x="868.40002"
     style="fill:#008342;fill-opacity:1;display:none"
     id="rect184" />
  <rect
     width="71.800003"
     height="71.800003"
     y="888.98901"
     x="0"
     style="fill:#008342;fill-opacity:1;display:none"
     id="rect188" />
  <rect
     width="71.800003"
     height="71.800003"
     y="888.98901"
     x="66.800003"
     style="fill:#008342;fill-opacity:1;display:none"
     id="rect190" />
  <rect
     width="71.800003"
     height="71.800003"
     y="888.98901"
     x="133.60001"
     style="fill:#008342;fill-opacity:1;display:none"
     id="rect192" />
  <rect
     width="71.800003"
     height="71.800003"
     y="888.98901"
     x="200.39999"
     style="fill:#008342;fill-opacity:1;display:none"
     id="rect194" />
  <rect
     width="71.800003"
     height="71.800003"
     y="888.98901"
     x="334"
     style="fill:#008342;fill-opacity:1;display:none"
     id="rect198" />
  <rect
     width="71.800003"
     height="71.800003"
     y="888.98901"
     x="534.40002"
     style="fill:#008342;fill-opacity:1;display:none"
     id="rect204" />
  <rect
     width="71.800003"
     height="71.800003"
     y="888.98901"
     x="601.20001"
     style="fill:#008342;fill-opacity:1;display:none"
     id="rect206" />
  <rect
     width="71.800003"
     height="71.800003"
     y="888.98901"
     x="668"
     style="fill:#008342;fill-opacity:1;display:none"
     id="rect208" />
  <rect
     width="71.800003"
     height="71.800003"
     y="955.789"
     x="0"
     style="fill:#008342;fill-opacity:1;display:none"
     id="rect218" />
  <rect
     width="71.800003"
     height="71.800003"
     y="955.789"
     x="66.800003"
     style="fill:#008342;fill-opacity:1;display:none"
     id="rect220" />
  <rect
     width="71.800003"
     height="71.800003"
     y="955.789"
     x="133.60001"
     style="fill:#008342;fill-opacity:1;display:none"
     id="rect222" />
  <rect
     width="71.800003"
     height="71.800003"
     y="955.789"
     x="200.39999"
     style="fill:#008342;fill-opacity:1;display:none"
     id="rect224" />
  <rect
     width="71.800003"
     height="71.800003"
     y="955.789"
     x="534.40002"
     style="fill:#008342;fill-opacity:1;display:none"
     id="rect234" />
  <rect
     width="71.800003"
     height="71.800003"
     y="955.789"
     x="601.20001"
     style="fill:#008342;fill-opacity:1;display:none"
     id="rect236" />
  <rect
     width="71.800003"
     height="71.800003"
     y="955.789"
     x="868.40002"
     style="fill:#008342;fill-opacity:1;display:none"
     id="rect244" />
  <rect
     width="71.800003"
     height="71.800003"
     y="1022.589"
     x="0"
     style="fill:#008342;fill-opacity:1;display:none"
     id="rect248" />
  <rect
     width="71.800003"
     height="71.800003"
     y="1022.589"
     x="66.800003"
     style="fill:#008342;fill-opacity:1;display:none"
     id="rect250" />
  <rect
     width="71.800003"
     height="71.800003"
     y="1022.589"
     x="133.60001"
     style="fill:#008342;fill-opacity:1;display:none"
     id="rect252" />
  <rect
     width="71.800003"
     height="71.800003"
     y="1022.589"
     x="601.20001"
     style="fill:#008342;fill-opacity:1;display:none"
     id="rect266" />
  <rect
     width="71.800003"
     height="71.800003"
     y="1022.589"
     x="734.79999"
     style="fill:#008342;fill-opacity:1;display:none"
     id="rect270" />
  <rect
     width="71.800003"
     height="71.800003"
     y="1089.389"
     x="0"
     style="fill:#008342;fill-opacity:1;display:none"
     id="rect278" />
  <rect
     width="71.800003"
     height="71.800003"
     y="1089.389"
     x="66.800003"
     style="fill:#008342;fill-opacity:1;display:none"
     id="rect280" />
  <rect
     width="71.800003"
     height="71.800003"
     y="1089.389"
     x="133.60001"
     style="fill:#008342;fill-opacity:1;display:none"
     id="rect282" />
  <rect
     width="71.800003"
     height="71.800003"
     y="1089.389"
     x="601.20001"
     style="fill:#008342;fill-opacity:1;display:none"
     id="rect296" />
  <rect
     width="71.800003"
     height="71.800003"
     y="1089.389"
     x="734.79999"
     style="fill:#008342;fill-opacity:1;display:none"
     id="rect300" />
  <rect
     width="71.800003"
     height="71.800003"
     y="1156.189"
     x="66.800003"
     style="fill:#008342;fill-opacity:1;display:none"
     id="rect310" />
  <rect
     width="71.800003"
     height="71.800003"
     y="1156.189"
     x="267.20001"
     style="fill:#008342;fill-opacity:1;display:none"
     id="rect316" />
  <rect
     width="71.800003"
     height="71.800003"
     y="1156.189"
     x="534.40002"
     style="fill:#008342;fill-opacity:1;display:none"
     id="rect324" />
  <rect
     width="71.800003"
     height="71.800003"
     y="1156.189"
     x="734.79999"
     style="fill:#008342;fill-opacity:1;display:none"
     id="rect330" />
  <rect
     width="71.800003"
     height="71.800003"
     y="1222.989"
     x="133.60001"
     style="fill:#008342;fill-opacity:1;display:none"
     id="rect342" />
  <rect
     width="71.800003"
     height="71.800003"
     y="1222.989"
     x="200.39999"
     style="fill:#008342;fill-opacity:1;display:none"
     id="rect344" />
  <rect
     width="71.800003"
     height="71.800003"
     y="1222.989"
     x="400.79999"
     style="fill:#008342;fill-opacity:1;display:none"
     id="rect350" />
  <rect
     width="71.800003"
     height="71.800003"
     y="1222.989"
     x="668"
     style="fill:#008342;fill-opacity:1;display:none"
     id="rect358" />
  <rect
     width="71.800003"
     height="71.800003"
     y="1222.989"
     x="734.79999"
     style="fill:#008342;fill-opacity:1;display:none"
     id="rect360" />
  <rect
     width="71.800003"
     height="71.800003"
     y="1222.989"
     x="801.59998"
     style="fill:#008342;fill-opacity:1;display:none"
     id="rect362" />
  <rect
     width="71.800003"
     height="71.800003"
     y="1222.989"
     x="868.40002"
     style="fill:#008342;fill-opacity:1;display:none"
     id="rect364" />
  <rect
     width="71.800003"
     height="71.800003"
     y="1222.989"
     x="935.20001"
     style="fill:#008342;fill-opacity:1;display:none"
     id="rect366" />
  <rect
     width="71.800003"
     height="71.800003"
     y="1289.7889"
     x="66.800003"
     style="fill:#008342;fill-opacity:1;display:none"
     id="rect370" />
  <rect
     width="71.800003"
     height="71.800003"
     y="1289.7889"
     x="267.20001"
     style="fill:#008342;fill-opacity:1;display:none"
     id="rect376" />
  <rect
     width="71.800003"
     height="71.800003"
     y="1289.7889"
     x="400.79999"
     style="fill:#008342;fill-opacity:1;display:none"
     id="rect380" />
  <rect
     width="71.800003"
     height="71.800003"
     y="1289.7889"
     x="534.40002"
     style="fill:#008342;fill-opacity:1;display:none"
     id="rect384" />
  <rect
     width="71.800003"
     height="71.800003"
     y="1289.7889"
     x="668"
     style="fill:#008342;fill-opacity:1;display:none"
     id="rect388" />
  <rect
     width="71.800003"
     height="71.800003"
     y="1289.7889"
     x="868.40002"
     style="fill:#008342;fill-opacity:1;display:none"
     id="rect394" />
  <rect
     width="71.800003"
     height="71.800003"
     y="1289.7889"
     x="935.20001"
     style="fill:#008342;fill-opacity:1;display:none"
     id="rect396" />
  <rect
     width="71.800003"
     height="71.800003"
     y="1356.589"
     x="0"
     style="fill:#008342;fill-opacity:1;display:none"
     id="rect398" />
  <rect
     width="71.800003"
     height="71.800003"
     y="1356.589"
     x="66.800003"
     style="fill:#008342;fill-opacity:1;display:none"
     id="rect400" />
  <rect
     width="71.800003"
     height="71.800003"
     y="1356.589"
     x="400.79999"
     style="fill:#008342;fill-opacity:1;display:none"
     id="rect410" />
  <rect
     width="71.800003"
     height="71.800003"
     y="1356.589"
     x="467.60001"
     style="fill:#008342;fill-opacity:1;display:none"
     id="rect412" />
  <rect
     width="71.800003"
     height="71.800003"
     y="1356.589"
     x="601.20001"
     style="fill:#008342;fill-opacity:1;display:none"
     id="rect416" />
  <rect
     width="71.800003"
     height="71.800003"
     y="1356.589"
     x="668"
     style="fill:#008342;fill-opacity:1;display:none"
     id="rect418" />
  <rect
     width="71.800003"
     height="71.800003"
     y="1356.589"
     x="734.79999"
     style="fill:#008342;fill-opacity:1;display:none"
     id="rect420" />
  <rect
     width="71.800003"
     height="71.800003"
     y="1356.589"
     x="801.59998"
     style="fill:#008342;fill-opacity:1;display:none"
     id="rect422" />
  <rect
     width="71.800003"
     height="71.800003"
     y="1356.589"
     x="868.40002"
     style="fill:#008342;fill-opacity:1;display:none"
     id="rect424" />
  <rect
     width="71.800003"
     height="71.800003"
     y="416.15509"
     x="212.02704"
     style="fill:#d20000;fill-opacity:1"
     id="rect14"
     inkscape:export-filename="/home/snelting/Desktop/FT_madrid/lgrulogo_small.png"
     inkscape:export-xdpi="6.682785"
     inkscape:export-ydpi="6.682785" />
  <rect
     width="71.800003"
     height="71.800003"
     y="1356.589"
     x="935.20001"
     style="fill:#008342;fill-opacity:1;display:none"
     id="rect426" />
  <rect
     width="71.800003"
     height="71.800003"
     y="1423.389"
     x="0"
     style="fill:#008342;fill-opacity:1;display:none"
     id="rect428" />
  <rect
     width="71.800003"
     height="71.800003"
     y="1423.389"
     x="66.800003"
     style="fill:#008342;fill-opacity:1;display:none"
     id="rect430" />
  <rect
     width="71.800003"
     height="71.800003"
     y="1423.389"
     x="133.60001"
     style="fill:#008342;fill-opacity:1;display:none"
     id="rect432" />
  <rect
     width="71.800003"
     height="71.800003"
     y="1423.389"
     x="200.39999"
     style="fill:#008342;fill-opacity:1;display:none"
     id="rect434" />
  <rect
     width="71.800003"
     height="71.800003"
     y="1423.389"
     x="267.20001"
     style="fill:#008342;fill-opacity:1;display:none"
     id="rect436" />
  <rect
     width="71.800003"
     height="71.800003"
     y="416.15509"
     x="345.62714"
     style="fill:#d20000;fill-opacity:1"
     id="rect18"
     inkscape:export-filename="/home/snelting/Desktop/FT_madrid/lgrulogo_small.png"
     inkscape:export-xdpi="6.682785"
     inkscape:export-ydpi="6.682785" />
  <rect
     width="71.800003"
     height="71.800003"
     y="416.15509"
     x="412.42706"
     style="fill:#d20000;fill-opacity:1"
     id="rect20"
     inkscape:export-filename="/home/snelting/Desktop/FT_madrid/lgrulogo_small.png"
     inkscape:export-xdpi="6.682785"
     inkscape:export-ydpi="6.682785" />
  <rect
     width="71.800003"
     height="71.800003"
     y="416.15509"
     x="479.22711"
     style="fill:#d20000;fill-opacity:1"
     id="rect22"
     inkscape:export-filename="/home/snelting/Desktop/FT_madrid/lgrulogo_small.png"
     inkscape:export-xdpi="6.682785"
     inkscape:export-ydpi="6.682785" />
  <rect
     width="71.800003"
     height="71.800003"
     y="416.15509"
     x="679.62714"
     style="fill:#d20000;fill-opacity:1"
     id="rect28"
     inkscape:export-filename="/home/snelting/Desktop/FT_madrid/lgrulogo_small.png"
     inkscape:export-xdpi="6.682785"
     inkscape:export-ydpi="6.682785" />
  <rect
     width="71.800003"
     height="71.800003"
     y="416.15509"
     x="746.42706"
     style="fill:#d20000;fill-opacity:1"
     id="rect30"
     inkscape:export-filename="/home/snelting/Desktop/FT_madrid/lgrulogo_small.png"
     inkscape:export-xdpi="6.682785"
     inkscape:export-ydpi="6.682785" />
  <rect
     width="71.800003"
     height="71.800003"
     y="416.15509"
     x="880.02716"
     style="fill:#d20000;fill-opacity:1"
     id="rect34"
     inkscape:export-filename="/home/snelting/Desktop/FT_madrid/lgrulogo_small.png"
     inkscape:export-xdpi="6.682785"
     inkscape:export-ydpi="6.682785" />
  <rect
     width="71.800003"
     height="71.800003"
     y="416.15509"
     x="946.82709"
     style="fill:#d20000;fill-opacity:1"
     id="rect36"
     inkscape:export-filename="/home/snelting/Desktop/FT_madrid/lgrulogo_small.png"
     inkscape:export-xdpi="6.682785"
     inkscape:export-ydpi="6.682785" />
  <rect
     width="71.800003"
     height="71.800003"
     y="482.95511"
     x="212.02704"
     style="fill:#d20000;fill-opacity:1"
     id="rect44"
     inkscape:export-filename="/home/snelting/Desktop/FT_madrid/lgrulogo_small.png"
     inkscape:export-xdpi="6.682785"
     inkscape:export-ydpi="6.682785" />
  <rect
     width="71.800003"
     height="71.800003"
     y="482.95511"
     x="278.82709"
     style="fill:#d20000;fill-opacity:1"
     id="rect46"
     inkscape:export-filename="/home/snelting/Desktop/FT_madrid/lgrulogo_small.png"
     inkscape:export-xdpi="6.682785"
     inkscape:export-ydpi="6.682785" />
  <rect
     width="71.800003"
     height="71.800003"
     y="482.95511"
     x="345.62714"
     style="fill:#d20000;fill-opacity:1"
     id="rect48"
     inkscape:export-filename="/home/snelting/Desktop/FT_madrid/lgrulogo_small.png"
     inkscape:export-xdpi="6.682785"
     inkscape:export-ydpi="6.682785" />
  <rect
     width="71.800003"
     height="71.800003"
     y="482.95511"
     x="412.42706"
     style="fill:#d20000;fill-opacity:1"
     id="rect50"
     inkscape:export-filename="/home/snelting/Desktop/FT_madrid/lgrulogo_small.png"
     inkscape:export-xdpi="6.682785"
     inkscape:export-ydpi="6.682785" />
  <rect
     width="71.800003"
     height="71.800003"
     y="482.95511"
     x="479.22711"
     style="fill:#d20000;fill-opacity:1"
     id="rect52"
     inkscape:export-filename="/home/snelting/Desktop/FT_madrid/lgrulogo_small.png"
     inkscape:export-xdpi="6.682785"
     inkscape:export-ydpi="6.682785" />
  <rect
     width="71.800003"
     height="71.800003"
     y="482.95511"
     x="546.02716"
     style="fill:#d20000;fill-opacity:1"
     id="rect54"
     inkscape:export-filename="/home/snelting/Desktop/FT_madrid/lgrulogo_small.png"
     inkscape:export-xdpi="6.682785"
     inkscape:export-ydpi="6.682785" />
  <rect
     width="71.800003"
     height="71.800003"
     y="482.95511"
     x="612.82709"
     style="fill:#d20000;fill-opacity:1"
     id="rect56"
     inkscape:export-filename="/home/snelting/Desktop/FT_madrid/lgrulogo_small.png"
     inkscape:export-xdpi="6.682785"
     inkscape:export-ydpi="6.682785" />
  <rect
     width="71.800003"
     height="71.800003"
     y="482.95511"
     x="679.62714"
     style="fill:#d20000;fill-opacity:1"
     id="rect58"
     inkscape:export-filename="/home/snelting/Desktop/FT_madrid/lgrulogo_small.png"
     inkscape:export-xdpi="6.682785"
     inkscape:export-ydpi="6.682785" />
  <rect
     width="71.800003"
     height="71.800003"
     y="482.95511"
     x="746.42706"
     style="fill:#d20000;fill-opacity:1"
     id="rect60"
     inkscape:export-filename="/home/snelting/Desktop/FT_madrid/lgrulogo_small.png"
     inkscape:export-xdpi="6.682785"
     inkscape:export-ydpi="6.682785" />
  <rect
     width="71.800003"
     height="71.800003"
     y="482.95511"
     x="813.22711"
     style="fill:#d20000;fill-opacity:1"
     id="rect62"
     inkscape:export-filename="/home/snelting/Desktop/FT_madrid/lgrulogo_small.png"
     inkscape:export-xdpi="6.682785"
     inkscape:export-ydpi="6.682785" />
  <rect
     width="71.800003"
     height="71.800003"
     y="482.95511"
     x="946.82709"
     style="fill:#d20000;fill-opacity:1"
     id="rect66"
     inkscape:export-filename="/home/snelting/Desktop/FT_madrid/lgrulogo_small.png"
     inkscape:export-xdpi="6.682785"
     inkscape:export-ydpi="6.682785" />
  <rect
     width="71.800003"
     height="71.800003"
     y="549.75513"
     x="278.82709"
     style="fill:#d20000;fill-opacity:1"
     id="rect76"
     inkscape:export-filename="/home/snelting/Desktop/FT_madrid/lgrulogo_small.png"
     inkscape:export-xdpi="6.682785"
     inkscape:export-ydpi="6.682785" />
  <rect
     width="71.800003"
     height="71.800003"
     y="549.75513"
     x="345.62714"
     style="fill:#d20000;fill-opacity:1"
     id="rect78"
     inkscape:export-filename="/home/snelting/Desktop/FT_madrid/lgrulogo_small.png"
     inkscape:export-xdpi="6.682785"
     inkscape:export-ydpi="6.682785" />
  <rect
     width="71.800003"
     height="71.800003"
     y="549.75513"
     x="412.42706"
     style="fill:#d20000;fill-opacity:1"
     id="rect80"
     inkscape:export-filename="/home/snelting/Desktop/FT_madrid/lgrulogo_small.png"
     inkscape:export-xdpi="6.682785"
     inkscape:export-ydpi="6.682785" />
  <rect
     width="71.800003"
     height="71.800003"
     y="549.75513"
     x="479.22711"
     style="fill:#d20000;fill-opacity:1"
     id="rect82"
     inkscape:export-filename="/home/snelting/Desktop/FT_madrid/lgrulogo_small.png"
     inkscape:export-xdpi="6.682785"
     inkscape:export-ydpi="6.682785" />
  <rect
     width="71.800003"
     height="71.800003"
     y="549.75513"
     x="546.02716"
     style="fill:#d20000;fill-opacity:1"
     id="rect84"
     inkscape:export-filename="/home/snelting/Desktop/FT_madrid/lgrulogo_small.png"
     inkscape:export-xdpi="6.682785"
     inkscape:export-ydpi="6.682785" />
  <rect
     width="71.800003"
     height="71.800003"
     y="549.75513"
     x="612.82709"
     style="fill:#d20000;fill-opacity:1"
     id="rect86"
     inkscape:export-filename="/home/snelting/Desktop/FT_madrid/lgrulogo_small.png"
     inkscape:export-xdpi="6.682785"
     inkscape:export-ydpi="6.682785" />
  <rect
     width="71.800003"
     height="71.800003"
     y="549.75513"
     x="679.62714"
     style="fill:#d20000;fill-opacity:1"
     id="rect88"
     inkscape:export-filename="/home/snelting/Desktop/FT_madrid/lgrulogo_small.png"
     inkscape:export-xdpi="6.682785"
     inkscape:export-ydpi="6.682785" />
  <rect
     width="71.800003"
     height="71.800003"
     y="549.75513"
     x="880.02716"
     style="fill:#d20000;fill-opacity:1"
     id="rect94"
     inkscape:export-filename="/home/snelting/Desktop/FT_madrid/lgrulogo_small.png"
     inkscape:export-xdpi="6.682785"
     inkscape:export-ydpi="6.682785" />
  <rect
     width="71.800003"
     height="71.800003"
     y="616.55511"
     x="345.62714"
     style="fill:#d20000;fill-opacity:1"
     id="rect108"
     inkscape:export-filename="/home/snelting/Desktop/FT_madrid/lgrulogo_small.png"
     inkscape:export-xdpi="6.682785"
     inkscape:export-ydpi="6.682785" />
  <rect
     width="71.800003"
     height="71.800003"
     y="616.55511"
     x="412.42706"
     style="fill:#d20000;fill-opacity:1"
     id="rect110"
     inkscape:export-filename="/home/snelting/Desktop/FT_madrid/lgrulogo_small.png"
     inkscape:export-xdpi="6.682785"
     inkscape:export-ydpi="6.682785" />
  <rect
     width="71.800003"
     height="71.800003"
     y="616.55511"
     x="479.22711"
     style="fill:#d20000;fill-opacity:1"
     id="rect112"
     inkscape:export-filename="/home/snelting/Desktop/FT_madrid/lgrulogo_small.png"
     inkscape:export-xdpi="6.682785"
     inkscape:export-ydpi="6.682785" />
  <rect
     width="71.800003"
     height="71.800003"
     y="616.55511"
     x="546.02716"
     style="fill:#d20000;fill-opacity:1"
     id="rect114"
     inkscape:export-filename="/home/snelting/Desktop/FT_madrid/lgrulogo_small.png"
     inkscape:export-xdpi="6.682785"
     inkscape:export-ydpi="6.682785" />
  <rect
     width="71.800003"
     height="71.800003"
     y="616.55511"
     x="612.82709"
     style="fill:#d20000;fill-opacity:1"
     id="rect116"
     inkscape:export-filename="/home/snelting/Desktop/FT_madrid/lgrulogo_small.png"
     inkscape:export-xdpi="6.682785"
     inkscape:export-ydpi="6.682785" />
  <rect
     width="71.800003"
     height="71.800003"
     y="616.55511"
     x="746.42706"
     style="fill:#d20000;fill-opacity:1"
     id="rect120"
     inkscape:export-filename="/home/snelting/Desktop/FT_madrid/lgrulogo_small.png"
     inkscape:export-xdpi="6.682785"
     inkscape:export-ydpi="6.682785" />
  <rect
     width="71.800003"
     height="71.800003"
     y="616.55511"
     x="813.22711"
     style="fill:#d20000;fill-opacity:1"
     id="rect122"
     inkscape:export-filename="/home/snelting/Desktop/FT_madrid/lgrulogo_small.png"
     inkscape:export-xdpi="6.682785"
     inkscape:export-ydpi="6.682785" />
  <rect
     width="71.800003"
     height="71.800003"
     y="616.55511"
     x="880.02716"
     style="fill:#d20000;fill-opacity:1"
     id="rect124"
     inkscape:export-filename="/home/snelting/Desktop/FT_madrid/lgrulogo_small.png"
     inkscape:export-xdpi="6.682785"
     inkscape:export-ydpi="6.682785" />
  <rect
     width="71.800003"
     height="71.800003"
     y="616.55511"
     x="946.82709"
     style="fill:#d20000;fill-opacity:1"
     id="rect126"
     inkscape:export-filename="/home/snelting/Desktop/FT_madrid/lgrulogo_small.png"
     inkscape:export-xdpi="6.682785"
     inkscape:export-ydpi="6.682785" />
  <rect
     width="71.800003"
     height="71.800003"
     y="683.35516"
     x="145.22711"
     style="fill:#d20000;fill-opacity:1"
     id="rect132"
     inkscape:export-filename="/home/snelting/Desktop/FT_madrid/lgrulogo_small.png"
     inkscape:export-xdpi="6.682785"
     inkscape:export-ydpi="6.682785" />
  <rect
     width="71.800003"
     height="71.800003"
     y="683.35516"
     x="278.82709"
     style="fill:#d20000;fill-opacity:1"
     id="rect136"
     inkscape:export-filename="/home/snelting/Desktop/FT_madrid/lgrulogo_small.png"
     inkscape:export-xdpi="6.682785"
     inkscape:export-ydpi="6.682785" />
  <rect
     width="71.800003"
     height="71.800003"
     y="683.35516"
     x="345.62714"
     style="fill:#d20000;fill-opacity:1"
     id="rect138"
     inkscape:export-filename="/home/snelting/Desktop/FT_madrid/lgrulogo_small.png"
     inkscape:export-xdpi="6.682785"
     inkscape:export-ydpi="6.682785" />
  <rect
     width="71.800003"
     height="71.800003"
     y="683.35516"
     x="412.42706"
     style="fill:#d20000;fill-opacity:1"
     id="rect140"
     inkscape:export-filename="/home/snelting/Desktop/FT_madrid/lgrulogo_small.png"
     inkscape:export-xdpi="6.682785"
     inkscape:export-ydpi="6.682785" />
  <rect
     width="71.800003"
     height="71.800003"
     y="683.35516"
     x="612.82709"
     style="fill:#d20000;fill-opacity:1"
     id="rect146"
     inkscape:export-filename="/home/snelting/Desktop/FT_madrid/lgrulogo_small.png"
     inkscape:export-xdpi="6.682785"
     inkscape:export-ydpi="6.682785" />
  <rect
     width="71.800003"
     height="71.800003"
     y="683.35516"
     x="679.62714"
     style="fill:#d20000;fill-opacity:1"
     id="rect148"
     inkscape:export-filename="/home/snelting/Desktop/FT_madrid/lgrulogo_small.png"
     inkscape:export-xdpi="6.682785"
     inkscape:export-ydpi="6.682785" />
  <rect
     width="71.800003"
     height="71.800003"
     y="683.35516"
     x="746.42706"
     style="fill:#d20000;fill-opacity:1"
     id="rect150"
     inkscape:export-filename="/home/snelting/Desktop/FT_madrid/lgrulogo_small.png"
     inkscape:export-xdpi="6.682785"
     inkscape:export-ydpi="6.682785" />
  <rect
     width="71.800003"
     height="71.800003"
     y="683.35516"
     x="880.02716"
     style="fill:#d20000;fill-opacity:1"
     id="rect154"
     inkscape:export-filename="/home/snelting/Desktop/FT_madrid/lgrulogo_small.png"
     inkscape:export-xdpi="6.682785"
     inkscape:export-ydpi="6.682785" />
  <rect
     width="71.800003"
     height="71.800003"
     y="683.35516"
     x="946.82709"
     style="fill:#d20000;fill-opacity:1"
     id="rect156"
     inkscape:export-filename="/home/snelting/Desktop/FT_madrid/lgrulogo_small.png"
     inkscape:export-xdpi="6.682785"
     inkscape:export-ydpi="6.682785" />
  <rect
     width="71.800003"
     height="71.800003"
     y="750.15515"
     x="345.62714"
     style="fill:#d20000;fill-opacity:1"
     id="rect168"
     inkscape:export-filename="/home/snelting/Desktop/FT_madrid/lgrulogo_small.png"
     inkscape:export-xdpi="6.682785"
     inkscape:export-ydpi="6.682785" />
  <rect
     width="71.800003"
     height="71.800003"
     y="750.15515"
     x="412.42706"
     style="fill:#d20000;fill-opacity:1"
     id="rect170"
     inkscape:export-filename="/home/snelting/Desktop/FT_madrid/lgrulogo_small.png"
     inkscape:export-xdpi="6.682785"
     inkscape:export-ydpi="6.682785" />
  <rect
     width="71.800003"
     height="71.800003"
     y="750.15515"
     x="546.02716"
     style="fill:#d20000;fill-opacity:1"
     id="rect174"
     inkscape:export-filename="/home/snelting/Desktop/FT_madrid/lgrulogo_small.png"
     inkscape:export-xdpi="6.682785"
     inkscape:export-ydpi="6.682785" />
  <rect
     width="71.800003"
     height="71.800003"
     y="750.15515"
     x="612.82709"
     style="fill:#d20000;fill-opacity:1"
     id="rect176"
     inkscape:export-filename="/home/snelting/Desktop/FT_madrid/lgrulogo_small.png"
     inkscape:export-xdpi="6.682785"
     inkscape:export-ydpi="6.682785" />
  <rect
     width="71.800003"
     height="71.800003"
     y="750.15515"
     x="679.62714"
     style="fill:#d20000;fill-opacity:1"
     id="rect178"
     inkscape:export-filename="/home/snelting/Desktop/FT_madrid/lgrulogo_small.png"
     inkscape:export-xdpi="6.682785"
     inkscape:export-ydpi="6.682785" />
  <rect
     width="71.800003"
     height="71.800003"
     y="750.15515"
     x="813.22711"
     style="fill:#d20000;fill-opacity:1"
     id="rect182"
     inkscape:export-filename="/home/snelting/Desktop/FT_madrid/lgrulogo_small.png"
     inkscape:export-xdpi="6.682785"
     inkscape:export-ydpi="6.682785" />
  <rect
     width="71.800003"
     height="71.800003"
     y="750.15515"
     x="946.82709"
     style="fill:#d20000;fill-opacity:1"
     id="rect186"
     inkscape:export-filename="/home/snelting/Desktop/FT_madrid/lgrulogo_small.png"
     inkscape:export-xdpi="6.682785"
     inkscape:export-ydpi="6.682785" />
  <rect
     width="71.800003"
     height="71.800003"
     y="816.95514"
     x="412.42706"
     style="fill:#d20000;fill-opacity:1"
     id="rect200"
     inkscape:export-filename="/home/snelting/Desktop/FT_madrid/lgrulogo_small.png"
     inkscape:export-xdpi="6.682785"
     inkscape:export-ydpi="6.682785" />
  <rect
     width="71.800003"
     height="71.800003"
     y="816.95514"
     x="479.22711"
     style="fill:#d20000;fill-opacity:1"
     id="rect202"
     inkscape:export-filename="/home/snelting/Desktop/FT_madrid/lgrulogo_small.png"
     inkscape:export-xdpi="6.682785"
     inkscape:export-ydpi="6.682785" />
  <rect
     width="71.800003"
     height="71.800003"
     y="816.95514"
     x="746.42706"
     style="fill:#d20000;fill-opacity:1"
     id="rect210"
     inkscape:export-filename="/home/snelting/Desktop/FT_madrid/lgrulogo_small.png"
     inkscape:export-xdpi="6.682785"
     inkscape:export-ydpi="6.682785" />
  <rect
     width="71.800003"
     height="71.800003"
     y="816.95514"
     x="813.22711"
     style="fill:#d20000;fill-opacity:1"
     id="rect212"
     inkscape:export-filename="/home/snelting/Desktop/FT_madrid/lgrulogo_small.png"
     inkscape:export-xdpi="6.682785"
     inkscape:export-ydpi="6.682785" />
  <rect
     width="71.800003"
     height="71.800003"
     y="816.95514"
     x="880.02716"
     style="fill:#d20000;fill-opacity:1"
     id="rect214"
     inkscape:export-filename="/home/snelting/Desktop/FT_madrid/lgrulogo_small.png"
     inkscape:export-xdpi="6.682785"
     inkscape:export-ydpi="6.682785" />
  <rect
     width="71.800003"
     height="71.800003"
     y="816.95514"
     x="946.82709"
     style="fill:#d20000;fill-opacity:1"
     id="rect216"
     inkscape:export-filename="/home/snelting/Desktop/FT_madrid/lgrulogo_small.png"
     inkscape:export-xdpi="6.682785"
     inkscape:export-ydpi="6.682785" />
  <rect
     width="71.800003"
     height="71.800003"
     y="883.75513"
     x="278.82709"
     style="fill:#d20000;fill-opacity:1"
     id="rect226"
     inkscape:export-filename="/home/snelting/Desktop/FT_madrid/lgrulogo_small.png"
     inkscape:export-xdpi="6.682785"
     inkscape:export-ydpi="6.682785" />
  <rect
     width="71.800003"
     height="71.800003"
     y="883.75513"
     x="345.62714"
     style="fill:#d20000;fill-opacity:1"
     id="rect228"
     inkscape:export-filename="/home/snelting/Desktop/FT_madrid/lgrulogo_small.png"
     inkscape:export-xdpi="6.682785"
     inkscape:export-ydpi="6.682785" />
  <rect
     width="71.800003"
     height="71.800003"
     y="883.75513"
     x="412.42706"
     style="fill:#d20000;fill-opacity:1"
     id="rect230"
     inkscape:export-filename="/home/snelting/Desktop/FT_madrid/lgrulogo_small.png"
     inkscape:export-xdpi="6.682785"
     inkscape:export-ydpi="6.682785" />
  <rect
     width="71.800003"
     height="71.800003"
     y="883.75513"
     x="479.22711"
     style="fill:#d20000;fill-opacity:1"
     id="rect232"
     inkscape:export-filename="/home/snelting/Desktop/FT_madrid/lgrulogo_small.png"
     inkscape:export-xdpi="6.682785"
     inkscape:export-ydpi="6.682785" />
  <rect
     width="71.800003"
     height="71.800003"
     y="883.75513"
     x="679.62714"
     style="fill:#d20000;fill-opacity:1"
     id="rect238"
     inkscape:export-filename="/home/snelting/Desktop/FT_madrid/lgrulogo_small.png"
     inkscape:export-xdpi="6.682785"
     inkscape:export-ydpi="6.682785" />
  <rect
     width="71.800003"
     height="71.800003"
     y="883.75513"
     x="746.42706"
     style="fill:#d20000;fill-opacity:1"
     id="rect240"
     inkscape:export-filename="/home/snelting/Desktop/FT_madrid/lgrulogo_small.png"
     inkscape:export-xdpi="6.682785"
     inkscape:export-ydpi="6.682785" />
  <rect
     width="71.800003"
     height="71.800003"
     y="883.75513"
     x="813.22711"
     style="fill:#d20000;fill-opacity:1"
     id="rect242"
     inkscape:export-filename="/home/snelting/Desktop/FT_madrid/lgrulogo_small.png"
     inkscape:export-xdpi="6.682785"
     inkscape:export-ydpi="6.682785" />
  <rect
     width="71.800003"
     height="71.800003"
     y="883.75513"
     x="946.82709"
     style="fill:#d20000;fill-opacity:1"
     id="rect246"
     inkscape:export-filename="/home/snelting/Desktop/FT_madrid/lgrulogo_small.png"
     inkscape:export-xdpi="6.682785"
     inkscape:export-ydpi="6.682785" />
  <rect
     width="71.800003"
     height="71.800003"
     y="950.55511"
     x="412.42706"
     style="fill:#d20000;fill-opacity:1"
     id="rect260"
     inkscape:export-filename="/home/snelting/Desktop/FT_madrid/lgrulogo_small.png"
     inkscape:export-xdpi="6.682785"
     inkscape:export-ydpi="6.682785" />
  <rect
     width="71.800003"
     height="71.800003"
     y="950.55511"
     x="479.22711"
     style="fill:#d20000;fill-opacity:1"
     id="rect262"
     inkscape:export-filename="/home/snelting/Desktop/FT_madrid/lgrulogo_small.png"
     inkscape:export-xdpi="6.682785"
     inkscape:export-ydpi="6.682785" />
  <rect
     width="71.800003"
     height="71.800003"
     y="950.55511"
     x="546.02716"
     style="fill:#d20000;fill-opacity:1"
     id="rect264"
     inkscape:export-filename="/home/snelting/Desktop/FT_madrid/lgrulogo_small.png"
     inkscape:export-xdpi="6.682785"
     inkscape:export-ydpi="6.682785" />
  <rect
     width="71.800003"
     height="71.800003"
     y="950.55511"
     x="679.62714"
     style="fill:#d20000;fill-opacity:1"
     id="rect268"
     inkscape:export-filename="/home/snelting/Desktop/FT_madrid/lgrulogo_small.png"
     inkscape:export-xdpi="6.682785"
     inkscape:export-ydpi="6.682785" />
  <rect
     width="71.800003"
     height="71.800003"
     y="950.55511"
     x="813.22711"
     style="fill:#d20000;fill-opacity:1"
     id="rect272"
     inkscape:export-filename="/home/snelting/Desktop/FT_madrid/lgrulogo_small.png"
     inkscape:export-xdpi="6.682785"
     inkscape:export-ydpi="6.682785" />
  <rect
     width="71.800003"
     height="71.800003"
     y="950.55511"
     x="880.02716"
     style="fill:#d20000;fill-opacity:1"
     id="rect274"
     inkscape:export-filename="/home/snelting/Desktop/FT_madrid/lgrulogo_small.png"
     inkscape:export-xdpi="6.682785"
     inkscape:export-ydpi="6.682785" />
  <rect
     width="71.800003"
     height="71.800003"
     y="950.55511"
     x="946.82709"
     style="fill:#d20000;fill-opacity:1"
     id="rect276"
     inkscape:export-filename="/home/snelting/Desktop/FT_madrid/lgrulogo_small.png"
     inkscape:export-xdpi="6.682785"
     inkscape:export-ydpi="6.682785" />
  <rect
     width="71.800003"
     height="71.800003"
     y="1017.3552"
     x="412.42706"
     style="fill:#d20000;fill-opacity:1"
     id="rect290"
     inkscape:export-filename="/home/snelting/Desktop/FT_madrid/lgrulogo_small.png"
     inkscape:export-xdpi="6.682785"
     inkscape:export-ydpi="6.682785" />
  <rect
     width="71.800003"
     height="71.800003"
     y="1017.3552"
     x="479.22711"
     style="fill:#d20000;fill-opacity:1"
     id="rect292"
     inkscape:export-filename="/home/snelting/Desktop/FT_madrid/lgrulogo_small.png"
     inkscape:export-xdpi="6.682785"
     inkscape:export-ydpi="6.682785" />
  <rect
     width="71.800003"
     height="71.800003"
     y="1017.3552"
     x="546.02716"
     style="fill:#d20000;fill-opacity:1"
     id="rect294"
     inkscape:export-filename="/home/snelting/Desktop/FT_madrid/lgrulogo_small.png"
     inkscape:export-xdpi="6.682785"
     inkscape:export-ydpi="6.682785" />
  <rect
     width="71.800003"
     height="71.800003"
     y="1017.3552"
     x="679.62714"
     style="fill:#d20000;fill-opacity:1"
     id="rect298"
     inkscape:export-filename="/home/snelting/Desktop/FT_madrid/lgrulogo_small.png"
     inkscape:export-xdpi="6.682785"
     inkscape:export-ydpi="6.682785" />
  <rect
     width="71.800003"
     height="71.800003"
     y="1017.3552"
     x="813.22711"
     style="fill:#d20000;fill-opacity:1"
     id="rect302"
     inkscape:export-filename="/home/snelting/Desktop/FT_madrid/lgrulogo_small.png"
     inkscape:export-xdpi="6.682785"
     inkscape:export-ydpi="6.682785" />
  <rect
     width="71.800003"
     height="71.800003"
     y="1017.3552"
     x="880.02716"
     style="fill:#d20000;fill-opacity:1"
     id="rect304"
     inkscape:export-filename="/home/snelting/Desktop/FT_madrid/lgrulogo_small.png"
     inkscape:export-xdpi="6.682785"
     inkscape:export-ydpi="6.682785" />
  <rect
     width="71.800003"
     height="71.800003"
     y="1017.3552"
     x="946.82709"
     style="fill:#d20000;fill-opacity:1"
     id="rect306"
     inkscape:export-filename="/home/snelting/Desktop/FT_madrid/lgrulogo_small.png"
     inkscape:export-xdpi="6.682785"
     inkscape:export-ydpi="6.682785" />
  <rect
     width="71.800003"
     height="71.800003"
     y="1084.155"
     x="345.62714"
     style="fill:#d20000;fill-opacity:1"
     id="rect318"
     inkscape:export-filename="/home/snelting/Desktop/FT_madrid/lgrulogo_small.png"
     inkscape:export-xdpi="6.682785"
     inkscape:export-ydpi="6.682785" />
  <rect
     width="71.800003"
     height="71.800003"
     y="1084.155"
     x="412.42706"
     style="fill:#d20000;fill-opacity:1"
     id="rect320"
     inkscape:export-filename="/home/snelting/Desktop/FT_madrid/lgrulogo_small.png"
     inkscape:export-xdpi="6.682785"
     inkscape:export-ydpi="6.682785" />
  <rect
     width="71.800003"
     height="71.800003"
     y="1084.155"
     x="479.22711"
     style="fill:#d20000;fill-opacity:1"
     id="rect322"
     inkscape:export-filename="/home/snelting/Desktop/FT_madrid/lgrulogo_small.png"
     inkscape:export-xdpi="6.682785"
     inkscape:export-ydpi="6.682785" />
  <rect
     width="71.800003"
     height="71.800003"
     y="1084.155"
     x="612.82709"
     style="fill:#d20000;fill-opacity:1"
     id="rect326"
     inkscape:export-filename="/home/snelting/Desktop/FT_madrid/lgrulogo_small.png"
     inkscape:export-xdpi="6.682785"
     inkscape:export-ydpi="6.682785" />
  <rect
     width="71.800003"
     height="71.800003"
     y="1084.155"
     x="679.62714"
     style="fill:#d20000;fill-opacity:1"
     id="rect328"
     inkscape:export-filename="/home/snelting/Desktop/FT_madrid/lgrulogo_small.png"
     inkscape:export-xdpi="6.682785"
     inkscape:export-ydpi="6.682785" />
  <rect
     width="71.800003"
     height="71.800003"
     y="1084.155"
     x="813.22711"
     style="fill:#d20000;fill-opacity:1"
     id="rect332"
     inkscape:export-filename="/home/snelting/Desktop/FT_madrid/lgrulogo_small.png"
     inkscape:export-xdpi="6.682785"
     inkscape:export-ydpi="6.682785" />
  <rect
     width="71.800003"
     height="71.800003"
     y="1084.155"
     x="880.02716"
     style="fill:#d20000;fill-opacity:1"
     id="rect334"
     inkscape:export-filename="/home/snelting/Desktop/FT_madrid/lgrulogo_small.png"
     inkscape:export-xdpi="6.682785"
     inkscape:export-ydpi="6.682785" />
  <rect
     width="71.800003"
     height="71.800003"
     y="1084.155"
     x="946.82709"
     style="fill:#d20000;fill-opacity:1"
     id="rect336"
     inkscape:export-filename="/home/snelting/Desktop/FT_madrid/lgrulogo_small.png"
     inkscape:export-xdpi="6.682785"
     inkscape:export-ydpi="6.682785" />
  <rect
     width="71.800003"
     height="71.800003"
     y="1150.9551"
     x="11.627081"
     style="fill:#d20000;fill-opacity:1"
     id="rect338"
     inkscape:export-filename="/home/snelting/Desktop/FT_madrid/lgrulogo_small.png"
     inkscape:export-xdpi="6.682785"
     inkscape:export-ydpi="6.682785" />
  <rect
     width="71.800003"
     height="71.800003"
     y="1150.9551"
     x="78.427132"
     style="fill:#d20000;fill-opacity:1"
     id="rect340"
     inkscape:export-filename="/home/snelting/Desktop/FT_madrid/lgrulogo_small.png"
     inkscape:export-xdpi="6.682785"
     inkscape:export-ydpi="6.682785" />
  <rect
     width="71.800003"
     height="71.800003"
     y="1150.9551"
     x="278.82709"
     style="fill:#d20000;fill-opacity:1"
     id="rect346"
     inkscape:export-filename="/home/snelting/Desktop/FT_madrid/lgrulogo_small.png"
     inkscape:export-xdpi="6.682785"
     inkscape:export-ydpi="6.682785" />
  <rect
     width="71.800003"
     height="71.800003"
     y="1150.9551"
     x="345.62714"
     style="fill:#d20000;fill-opacity:1"
     id="rect348"
     inkscape:export-filename="/home/snelting/Desktop/FT_madrid/lgrulogo_small.png"
     inkscape:export-xdpi="6.682785"
     inkscape:export-ydpi="6.682785" />
  <rect
     width="71.800003"
     height="71.800003"
     y="1150.9551"
     x="479.22711"
     style="fill:#d20000;fill-opacity:1"
     id="rect352"
     inkscape:export-filename="/home/snelting/Desktop/FT_madrid/lgrulogo_small.png"
     inkscape:export-xdpi="6.682785"
     inkscape:export-ydpi="6.682785" />
  <rect
     width="71.800003"
     height="71.800003"
     y="1150.9551"
     x="546.02716"
     style="fill:#d20000;fill-opacity:1"
     id="rect354"
     inkscape:export-filename="/home/snelting/Desktop/FT_madrid/lgrulogo_small.png"
     inkscape:export-xdpi="6.682785"
     inkscape:export-ydpi="6.682785" />
  <rect
     width="71.800003"
     height="71.800003"
     y="1150.9551"
     x="612.82709"
     style="fill:#d20000;fill-opacity:1"
     id="rect356"
     inkscape:export-filename="/home/snelting/Desktop/FT_madrid/lgrulogo_small.png"
     inkscape:export-xdpi="6.682785"
     inkscape:export-ydpi="6.682785" />
  <rect
     width="71.800003"
     height="71.800003"
     y="1217.755"
     x="11.627081"
     style="fill:#d20000;fill-opacity:1"
     id="rect368"
     inkscape:export-filename="/home/snelting/Desktop/FT_madrid/lgrulogo_small.png"
     inkscape:export-xdpi="6.682785"
     inkscape:export-ydpi="6.682785" />
  <rect
     width="71.800003"
     height="71.800003"
     y="1217.755"
     x="145.22711"
     style="fill:#d20000;fill-opacity:1"
     id="rect372"
     inkscape:export-filename="/home/snelting/Desktop/FT_madrid/lgrulogo_small.png"
     inkscape:export-xdpi="6.682785"
     inkscape:export-ydpi="6.682785" />
  <rect
     width="71.800003"
     height="71.800003"
     y="1217.755"
     x="212.02704"
     style="fill:#d20000;fill-opacity:1"
     id="rect374"
     inkscape:export-filename="/home/snelting/Desktop/FT_madrid/lgrulogo_small.png"
     inkscape:export-xdpi="6.682785"
     inkscape:export-ydpi="6.682785" />
  <rect
     width="71.800003"
     height="71.800003"
     y="1217.755"
     x="345.62714"
     style="fill:#d20000;fill-opacity:1"
     id="rect378"
     inkscape:export-filename="/home/snelting/Desktop/FT_madrid/lgrulogo_small.png"
     inkscape:export-xdpi="6.682785"
     inkscape:export-ydpi="6.682785" />
  <rect
     width="71.800003"
     height="71.800003"
     y="1217.755"
     x="479.22711"
     style="fill:#d20000;fill-opacity:1"
     id="rect382"
     inkscape:export-filename="/home/snelting/Desktop/FT_madrid/lgrulogo_small.png"
     inkscape:export-xdpi="6.682785"
     inkscape:export-ydpi="6.682785" />
  <rect
     width="71.800003"
     height="71.800003"
     y="1217.755"
     x="612.82709"
     style="fill:#d20000;fill-opacity:1"
     id="rect386"
     inkscape:export-filename="/home/snelting/Desktop/FT_madrid/lgrulogo_small.png"
     inkscape:export-xdpi="6.682785"
     inkscape:export-ydpi="6.682785" />
  <rect
     width="71.800003"
     height="71.800003"
     y="1217.755"
     x="746.42706"
     style="fill:#d20000;fill-opacity:1"
     id="rect390"
     inkscape:export-filename="/home/snelting/Desktop/FT_madrid/lgrulogo_small.png"
     inkscape:export-xdpi="6.682785"
     inkscape:export-ydpi="6.682785" />
  <rect
     width="71.800003"
     height="71.800003"
     y="1217.755"
     x="813.22711"
     style="fill:#d20000;fill-opacity:1"
     id="rect392"
     inkscape:export-filename="/home/snelting/Desktop/FT_madrid/lgrulogo_small.png"
     inkscape:export-xdpi="6.682785"
     inkscape:export-ydpi="6.682785" />
  <rect
     width="71.800003"
     height="71.800003"
     y="1284.5551"
     x="145.22711"
     style="fill:#d20000;fill-opacity:1"
     id="rect402"
     inkscape:export-filename="/home/snelting/Desktop/FT_madrid/lgrulogo_small.png"
     inkscape:export-xdpi="6.682785"
     inkscape:export-ydpi="6.682785" />
  <rect
     width="71.800003"
     height="71.800003"
     y="1284.5551"
     x="212.02704"
     style="fill:#d20000;fill-opacity:1"
     id="rect404"
     inkscape:export-filename="/home/snelting/Desktop/FT_madrid/lgrulogo_small.png"
     inkscape:export-xdpi="6.682785"
     inkscape:export-ydpi="6.682785" />
  <rect
     width="71.800003"
     height="71.800003"
     y="1284.5551"
     x="278.82709"
     style="fill:#d20000;fill-opacity:1"
     id="rect406"
     inkscape:export-filename="/home/snelting/Desktop/FT_madrid/lgrulogo_small.png"
     inkscape:export-xdpi="6.682785"
     inkscape:export-ydpi="6.682785" />
  <rect
     width="71.800003"
     height="71.800003"
     y="1284.5551"
     x="345.62714"
     style="fill:#d20000;fill-opacity:1"
     id="rect408"
     inkscape:export-filename="/home/snelting/Desktop/FT_madrid/lgrulogo_small.png"
     inkscape:export-xdpi="6.682785"
     inkscape:export-ydpi="6.682785" />
  <rect
     width="71.800003"
     height="71.800003"
     y="1284.5551"
     x="546.02716"
     style="fill:#d20000;fill-opacity:1"
     id="rect414"
     inkscape:export-filename="/home/snelting/Desktop/FT_madrid/lgrulogo_small.png"
     inkscape:export-xdpi="6.682785"
     inkscape:export-ydpi="6.682785" />
  <rect
     width="71.800003"
     height="71.800003"
     y="1351.3551"
     x="345.62714"
     style="fill:#d20000;fill-opacity:1"
     id="rect438"
     inkscape:export-filename="/home/snelting/Desktop/FT_madrid/lgrulogo_small.png"
     inkscape:export-xdpi="6.682785"
     inkscape:export-ydpi="6.682785" />
  <rect
     width="71.800003"
     height="71.800003"
     y="1423.389"
     x="400.79999"
     style="fill:#008342;fill-opacity:1;display:none"
     id="rect440" />
  <rect
     width="71.800003"
     height="71.800003"
     y="1423.389"
     x="467.60001"
     style="fill:#008342;fill-opacity:1;display:none"
     id="rect442" />
  <rect
     width="71.800003"
     height="71.800003"
     y="1423.389"
     x="534.40002"
     style="fill:#008342;fill-opacity:1;display:none"
     id="rect444" />
  <rect
     width="71.800003"
     height="71.800003"
     y="1423.389"
     x="601.20001"
     style="fill:#008342;fill-opacity:1;display:none"
     id="rect446" />
  <rect
     width="71.800003"
     height="71.800003"
     y="1423.389"
     x="668"
     style="fill:#008342;fill-opacity:1;display:none"
     id="rect448" />
  <rect
     width="71.800003"
     height="71.800003"
     y="1423.389"
     x="734.79999"
     style="fill:#008342;fill-opacity:1;display:none"
     id="rect450" />
  <rect
     width="71.800003"
     height="71.800003"
     y="1423.389"
     x="801.59998"
     style="fill:#008342;fill-opacity:1;display:none"
     id="rect452" />
  <rect
     width="71.800003"
     height="71.800003"
     y="1423.389"
     x="868.40002"
     style="fill:#008342;fill-opacity:1;display:none"
     id="rect454" />
  <rect
     width="71.800003"
     height="71.800003"
     y="1423.389"
     x="935.20001"
     style="fill:#008342;fill-opacity:1;display:none"
     id="rect456" />
  <text
     xml:space="preserve"
     style="font-size:51.651577px;font-style:normal;font-weight:normal;line-height:125%;letter-spacing:0px;word-spacing:0px;fill:#d20000;fill-opacity:1;stroke:none;font-family:Sans"
     x="1099.6603"
     y="1133.3164"
     id="text3263"
     sodipodi:linespacing="125%"
     inkscape:export-filename="/home/snelting/Desktop/FT_madrid/lgrulogo_small.png"
     inkscape:export-xdpi="6.682785"
     inkscape:export-ydpi="6.682785"><tspan
       sodipodi:role="line"
       id="tspan3265"
       x="1099.6603"
       y="1133.3164"
       style="font-size:187.23696899px;font-style:normal;font-variant:normal;font-weight:normal;font-stretch:condensed;text-align:start;line-height:125%;writing-mode:lr-tb;text-anchor:start;fill:#d20000;fill-opacity:1;font-family:Roboto;-inkscape-font-specification:Roboto Condensed">Research unit</tspan></text>
</svg>
